Susie Kim/posts/2019-01-01-new-corenlp/
…
txt_bi %>% filter(lemma == "be", second_pos == "VBN") %>% select(bigram)

## # A tibble: 34 x 1
##    bigram        
##    <chr>         
##  1 been made     
##  2 be banned     
##  3 is argued     
##  4 been won      
##  5 be banned     
##  6 was put       
##  7 be prepared   
##  8 are surrounded
##  9 are trained   
## 10 are paid      
## # ... with 24 more rows
…
